…
When this variable is used inside of `r_data_frame` the `varname` is
used as a column name. Additionally, the `n` argument is not set within
variable functions but is set once in `r_data_frame`:

``` r
r_data_frame(
    n = 500,
    race
)
```

    ## # A tibble: 500 × 1
    ##    Race    
    ##    <fct>   
    ##  1 Asian   
    ##  2 White   
    ##  3 Hispanic
    ##  4 White   
    ##  5 White   
    ##  6 White   
    ##  7 White   
    ##  8 White   
    ##  9 Black   
    ## 10 White   
    ## # … with 490 more rows
…
``` r
r_data_frame(
    n = 500,
    id,
    race,
    age,
    sex,
    hour,
    iq,
    height,
    died
)
```

    ## # A tibble: 500 × 8
    ##    ID    Race       Age Sex    Hour        IQ Height Died 
    ##    <chr> <fct>    <int> <fct>  <times>  <dbl>  <dbl> <lgl>
    ##  1 001   Black       72 Female 00:00:00    92     74 FALSE
    ##  2 002   Hispanic    63 Male   00:00:00    96     67 TRUE 
    ##  3 003   White       40 Female 00:00:00   117     69 FALSE
    ##  4 004   White       59 Male   00:00:00    77     65 FALSE
    ##  5 005   White       46 Male   00:00:00   100     70 TRUE 
    ##  6 006   Asian       86 Female 00:00:00    84     71 FALSE
    ##  7 007   Black       82 Female 00:00:00   107     63 TRUE 
    ##  8 008   Hispanic    30 Male   00:00:00   103     64 FALSE
    ##  9 009   Asian       39 Female 00:30:00    83     71 TRUE 
    ## 10 010   Native      75 Male   00:30:00    95     68 FALSE
    ## # … with 490 more rows
…
    n = 500,
    id,
    Scoring = rnorm,
    Smoker = valid,
    race,
    age,
    sex,
    hour,
    iq,
    height,
    died
)
```

    ## # A tibble: 500 × 10
    ##    ID    Scoring Smoker Race       Age Sex    Hour        IQ Height Died 
    ##    <chr>   <dbl> <lgl>  <fct>    <int> <fct>  <times>  <dbl>  <dbl> <lgl>
    ##  1 001    -1.60  TRUE   White       88 Female 00:00:00   107     71 FALSE
    ##  2 002     0.559 TRUE   Hispanic    42 Male   00:00:00   104     69 FALSE
    ##  3 003     1.33  TRUE   Hispanic    87 Male   00:00:00    94     67 FALSE
    ##  4 004    -1.45  FALSE  Hispanic    67 Male   00:00:00   100     71 FALSE
    ##  5 005     1.11  FALSE  White       83 Male   00:00:00   108     72 FALSE
    ##  6 006    -0.678 FALSE  Hispanic    80 Female 00:00:00   104     70 FALSE
    ##  7 007    -0.615 TRUE   White       64 Female 00:00:00    94     72 TRUE 
    ##  8 008    -0.239 TRUE   White       18 Male   00:00:00   116     69 FALSE
    ##  9 009    -1.28  FALSE  White       77 Female 00:00:00   103     64 FALSE
    ## 10 010    -0.267 FALSE  Asian       39 Female 00:00:00   100     73 TRUE 
    ## # … with 490 more rows

``` r
r_data_frame(
    n = 500,
    id,
    age, age, age,
    grade, grade, grade
)
```

    ## # A tibble: 500 × 7
    ##    ID    Age_1 Age_2 Age_3 Grade_1 Grade_2 Grade_3
    ##    <chr> <int> <int> <int>   <dbl>   <dbl>   <dbl>
    ##  1 001      49    28    55    88.5    87.4    91.8
    ##  2 002      39    31    37    84.1    84.1    91.7
    ##  3 003      66    53    89    91.9    94.2    88.3
    ##  4 004      41    37    50    82.9    92.5    79.8
    ##  5 005      67    75    51    90.2    80.4    86.1
    ##  6 006      36    45    78    81.7    86      79.4
    ##  7 007      64    59    54    79.8    95.1    85.6
    ##  8 008      33    56    52    94.5    83.5    86  
    ##  9 009      55    74    24    87.2    92.8    77.7
    ## 10 010      32    51    75    89.1    84.8    87  
    ## # … with 490 more rows
…
    id,
    Scoring = rnorm,
    Smoker = valid,
    `Reading(mins)` = rpois(lambda=20),  
    race,
    age(x = 8:14),
    sex,
    hour,
    iq,
    height(mean=50, sd = 10),
    died
)
```

    ## # A tibble: 500 × 11
    ##    ID    Scoring Smoker Reading(min…¹ Race    Age Sex   Hour     IQ Height Died 
    ##    <chr>   <dbl> <lgl>          <int> <fct> <int> <fct> <tim> <dbl>  <dbl> <lgl>
    ##  1 001     1.18  FALSE             23 Black    11 Fema… 00:0…    82     56 TRUE 
    ##  2 002     0.862 FALSE             29 White    14 Male  00:0…   101     45 FALSE
    ##  3 003     0.986 FALSE             18 Asian    14 Male  00:0…   102     36 FALSE
    ##  4 004     1.13  FALSE             23 White     9 Fema… 00:0…    85     60 FALSE
    ##  5 005     0.678 TRUE              14 White    12 Fema… 00:0…   109     57 FALSE
    ##  6 006     0.913 TRUE              23 White     8 Male  00:3…    95     72 FALSE
    ##  7 007     1.09  TRUE              17 White    11 Fema… 00:3…   112     51 TRUE 
    ##  8 008     0.811 TRUE              16 White     9 Fema… 00:3…    93     68 TRUE 
    ##  9 009     0.334 TRUE              13 White     8 Fema… 00:3…    81     56 TRUE 
    ## 10 010    -0.786 FALSE             26 White    10 Male  00:3…    95     43 TRUE 
    ## # … with 490 more rows, and abbreviated variable name ¹​`Reading(mins)`
…
    id,
    race,
    age,
    sex,
    hour,
    iq,
    height,
    died,
    Scoring = rnorm,
    Smoker = valid
) %>%
    r_na(prob=.4)
```

    ## # A tibble: 30 × 10
    ##    ID    Race        Age Sex    Hour        IQ Height Died  Scoring Smoker
    ##    <chr> <fct>     <int> <fct>  <times>  <dbl>  <dbl> <lgl>   <dbl> <lgl> 
    ##  1 01    <NA>         19 Female 00:00:00    96     65 NA      -1.86 FALSE 
    ##  2 02    <NA>         NA <NA>   00:30:00    83     NA NA      NA    NA    
    ##  3 03    White        54 Male   <NA>       100     NA FALSE    1.51 TRUE  
    ##  4 04    <NA>         NA <NA>   <NA>        NA     NA NA       1.38 FALSE 
    ##  5 05    White        30 Female <NA>       103     NA TRUE    NA    FALSE 
    ##  6 06    Bi-Racial    24 <NA>   07:00:00   112     NA NA      NA    NA    
    ##  7 07    Black        63 Male   07:00:00    92     64 FALSE   NA    FALSE 
    ##  8 08    Black        NA Male   07:30:00    NA     73 FALSE    1.28 NA    
    ##  9 09    White        80 Male   08:00:00    96     75 FALSE   NA    NA    
    ## 10 10    Black        NA Male   08:00:00   106     70 FALSE    1.55 TRUE  
    ## # … with 20 more rows
…
`r_series` can be used within a `r_data_frame` as well.

``` r
set.seed(10)

r_data_frame(n=100,
    id,
    age,
    sex,
    r_series(likert, 3, name = "Question")
)
```

    ## # A tibble: 100 × 6
    ##    ID      Age Sex    Question_1        Question_2        Question_3       
    ##    <chr> <int> <fct>  <ord>             <ord>             <ord>            
    ##  1 001      26 Male   Strongly Agree    Disagree          Disagree         
    ##  2 002      72 Male   Disagree          Agree             Strongly Disagree
    ##  3 003      89 Male   Strongly Disagree Strongly Disagree Strongly Agree   
    ##  4 004      71 Female Agree             Strongly Agree    Disagree         
    ##  5 005      56 Female Strongly Disagree Disagree          Neutral          
    ##  6 006      32 Female Strongly Disagree Strongly Agree    Disagree         
    ##  7 007      32 Female Strongly Disagree Strongly Agree    Strongly Disagree
    ##  8 008      59 Female Neutral           Strongly Agree    Strongly Disagree
    ##  9 009      88 Male   Agree             Agree             Agree            
    ## 10 010      51 Male   Agree             Disagree          Neutral          
    ## # … with 90 more rows

``` r
set.seed(10)

r_data_frame(n=100,
    id,
    age,
    sex,
    r_series(likert, 5, name = "Item", integer = TRUE)
)
```

    ## # A tibble: 100 × 8
    ##    ID      Age Sex    Item_1 Item_2 Item_3 Item_4 Item_5
    ##    <chr> <int> <fct>   <int>  <int>  <int>  <int>  <int>
    ##  1 001      26 Male        5      2      2      4      5
    ##  2 002      72 Male        2      4      1      4      3
    ##  3 003      89 Male        1      1      5      4      4
    ##  4 004      71 Female      4      5      2      1      2
    ##  5 005      56 Female      1      2      3      3      2
    ##  6 006      32 Female      1      5      2      5      1
    ##  7 007      32 Female      1      5      1      1      5
    ##  8 008      59 Female      3      5      1      4      1
    ##  9 009      88 Male        4      4      4      3      2
    ## 10 010      51 Male        4      2      3      1      3
    ## # … with 90 more rows
…
- `f` is one of (+, -, \*, /)
- `M` is a mean value
- `sd` is a standard deviation of the mean value

For example you may use `relate = "*4_1"`. If `relate = NULL` no
relationship is generated between columns. I will use the short hand
string form here.

#### Some Examples With Variation

``` r
r_series(grade, j = 5, n = 100, relate = "+1_6")
```

    ## # A tibble: 100 × 5
    ##    Grade_1    Grade_2    Grade_3    Grade_4    Grade_5   
    ##  * <variable> <variable> <variable> <variable> <variable>
    ##  1 90.0       98.7        98.6      104.6      114.1     
    ##  2 96.3       97.9        98.4      102.7      103.9     
    ##  3 96.6       92.6        94.9       92.7       98.8     
    ##  4 84.5       89.5        81.9       87.4       83.4     
    ##  5 86.8       84.1        82.2       82.8       94.0     
    ##  6 82.1       77.9        74.3       76.4       73.0     
    ##  7 90.9       96.1       107.5      120.2      126.8     
    ##  8 86.7       88.6        90.3       89.0       83.8     
    ##  9 86.1       84.1        88.9       90.1       72.6     
    ## 10 86.4       92.3        88.5       94.6       99.0     
    ## # … with 90 more rows

``` r
r_series(age, 5, 100, relate = "+5_0")
```

    ## # A tibble: 100 × 5
    ##    Age_1      Age_2      Age_3      Age_4      Age_5     
    ##  * <variable> <variable> <variable> <variable> <variable>
    ##  1 83         88         93         98         103       
    ##  2 48         53         58         63          68       
    ##  3 80         85         90         95         100       
    ##  4 46         51         56         61          66       
    ##  5 33         38         43         48          53       
    ##  6 53         58         63         68          73       
    ##  7 34         39         44         49          54       
    ##  8 31         36         41         46          51       
    ##  9 81         86         91         96         101       
    ## 10 50         55         60         65          70       
    ## # … with 90 more rows

``` r
r_series(likert, 5,  100, name ="Item", relate = "-.5_.1")
```

    ## # A tibble: 100 × 5
    ##    Item_1 Item_2 Item_3 Item_4 Item_5
    ##  *  <dbl>  <dbl>  <dbl>  <dbl>  <dbl>
    ##  1      1      0     -1     -1     -2
    ##  2      3      3      2      2      2
    ##  3      4      3      3      3      3
    ##  4      3      2      1      0      0
    ##  5      3      3      3      3      3
    ##  6      5      4      3      2      1
    ##  7      4      3      2      1      1
    ##  8      1      0     -1     -2     -2
    ##  9      3      2      1      1      1
    ## 10      1      0      0     -1     -2
    ## # … with 90 more rows

``` r
r_series(grade, j = 5, n = 100, relate = "*1.05_.1")
```

    ## # A tibble: 100 × 5
    ##    Grade_1    Grade_2    Grade_3    Grade_4    Grade_5   
    ##  * <variable> <variable> <variable> <variable> <variable>
    ##  1 90.8       90.80       99.880    109.8680   109.8680  
    ##  2 89.8       80.82       80.820     64.6560    58.1904  
    ##  3 90.3       99.33      109.263    109.2630    98.3367  
    ##  4 95.2       76.16       91.392     91.3920   100.5312  
    ##  5 89.1       98.01      117.612    105.8508   105.8508  
    ##  6 86.8       95.48       95.480    114.5760   160.4064  
    ##  7 93.4       93.40       93.400    102.7400   123.2880  
    ##  8 92.7       83.43       91.773    110.1276   121.1404  
    ##  9 84.9       93.39       93.390    102.7290   113.0019  
    ## 10 84.7       84.70       93.170     93.1700   111.8040  
    ## # … with 90 more rows
…
``` r
set.seed(10)
r_data_frame(n=100,
    id,
    age,
    r_dummy(sex, prefix = TRUE),
    r_dummy(political)
)
```

    ## # A tibble: 100 × 8
    ##    ID      Age Sex_Male Sex_Female Democrat Republican Libertarian Green
    ##    <chr> <int>    <int>      <int>    <int>      <int>       <int> <int>
    ##  1 001      26        1          0        0          0           1     0
    ##  2 002      72        1          0        1          0           0     0
    ##  3 003      89        1          0        0          1           0     0
    ##  4 004      71        0          1        1          0           0     0
    ##  5 005      56        0          1        0          1           0     0
    ##  6 006      32        0          1        0          1           0     0
    ##  7 007      32        0          1        1          0           0     0
    ##  8 008      59        0          1        0          1           0     0
    ##  9 009      88        1          0        0          1           0     0
    ## 10 010      51        1          0        0          1           0     0
    ## # … with 90 more rows
…
